FIFO_verif/dump.vcd
$date
    Jun  7, 2023  11:18:18
$end
$version
    TOOL:	xmsim(64)	22.03-s002
$end
$timescale
    1 ns
$end

$scope module fifo_tb $end
$var parameter 32 !    DATA_WIDTH $end
$var parameter 32 "    ADDR_WIDTH $end
$var parameter 32 #    FIFO_DEPTH $end
$var reg       1 $    clk $end
$var reg       1 %    rst $end
$var reg       1 &    rd_en $end
$var reg       1 '    wr_en $end
$var reg       8 (    tb_data_in [7:0] $end
$var wire      1 )    full  $end
$var wire      1 *    empty  $end
$var wire      1 +    wrap_on_full  $end
$var wire      8 ,    tb_data_out [7:0] $end

$scope module dut_if $end
$var wire      1 -    clk  $end
$var wire      1 .    rst  $end
$var reg       8 /    din [7:0] $end
$var reg       8 0    dout [7:0] $end
$var reg       1 1    wr_en $end
$var reg       1 2    rd_en $end
$var reg       1 3    full $end
$var reg       1 4    empty $end
$var reg       1 5    wrap_on_full $end
$upscope $end


$scope module dut $end
$var parameter 32 6    DATA_WIDTH $end
$var parameter 32 7    ADDR_WIDTH $end
$var parameter 32 8    FIFO_DEPTH $end
$var wire      1 9    clk  $end
$var wire      1 :    rst_n  $end
$var wire      1 ;    wrap_on_full  $end
$var wire      1 <    rd_en  $end
$var wire      1 =    wr_en  $end
$var wire      8 >    data_in [7:0] $end
$var wire      1 ?    full  $end
$var wire      1 @    empty  $end
$var reg       8 A    data_out [7:0] $end
$var reg       8 B    mem[0] [7:0] $end
$var reg       8 C    mem[1] [7:0] $end
$var reg       8 D    mem[2] [7:0] $end
$var reg       8 E    mem[3] [7:0] $end
$var reg       8 F    mem[4] [7:0] $end
$var reg       8 G    mem[5] [7:0] $end
$var reg       8 H    mem[6] [7:0] $end
$var reg       8 I    mem[7] [7:0] $end
$var reg       8 J    mem[8] [7:0] $end
$var reg       8 K    mem[9] [7:0] $end
$var reg       8 L    mem[10] [7:0] $end
$var reg       8 M    mem[11] [7:0] $end
$var reg       8 N    mem[12] [7:0] $end
$var reg       8 O    mem[13] [7:0] $end
$var reg       8 P    mem[14] [7:0] $end
$var reg       8 Q    mem[15] [7:0] $end
$var reg       8 R    mem[16] [7:0] $end
$var reg       8 S    mem[17] [7:0] $end
$var reg       8 T    mem[18] [7:0] $end
$var reg       8 U    mem[19] [7:0] $end
$var reg       8 V    mem[20] [7:0] $end
$var reg       8 W    mem[21] [7:0] $end
$var reg       8 X    mem[22] [7:0] $end
$var reg       8 Y    mem[23] [7:0] $end
$var reg       8 Z    mem[24] [7:0] $end
$var reg       8 [    mem[25] [7:0] $end
$var reg       8 \    mem[26] [7:0] $end
$var reg       8 ]    mem[27] [7:0] $end
$var reg       8 ^    mem[28] [7:0] $end
$var reg       8 _    mem[29] [7:0] $end
$var reg       8 `    mem[30] [7:0] $end
$var reg       8 a    mem[31] [7:0] $end
$var reg       8 b    mem[32] [7:0] $end
$var reg       8 c    mem[33] [7:0] $end
$var reg       8 d    mem[34] [7:0] $end
$var reg       8 e    mem[35] [7:0] $end
$var reg       8 f    mem[36] [7:0] $end
$var reg       8 g    mem[37] [7:0] $end
$var reg       8 h    mem[38] [7:0] $end
$var reg       8 i    mem[39] [7:0] $end
$var reg       8 j    mem[40] [7:0] $end
$var reg       8 k    mem[41] [7:0] $end
$var reg       8 l    mem[42] [7:0] $end
$var reg       8 m    mem[43] [7:0] $end
$var reg       8 n    mem[44] [7:0] $end
$var reg       8 o    mem[45] [7:0] $end
$var reg       8 p    mem[46] [7:0] $end
$var reg       8 q    mem[47] [7:0] $end
$var reg       8 r    mem[48] [7:0] $end
$var reg       8 s    mem[49] [7:0] $end
$var reg       8 t    mem[50] [7:0] $end
$var reg       8 u    mem[51] [7:0] $end
$var reg       8 v    mem[52] [7:0] $end
$var reg       8 w    mem[53] [7:0] $end
$var reg       8 x    mem[54] [7:0] $end
$var reg       8 y    mem[55] [7:0] $end
$var reg       8 z    mem[56] [7:0] $end
$var reg       8 {    mem[57] [7:0] $end
$var reg       8 |    mem[58] [7:0] $end
$var reg       8 }    mem[59] [7:0] $end
$var reg       8 ~    mem[60] [7:0] $end
$var reg       8 !!   mem[61] [7:0] $end
$var reg       8 "!   mem[62] [7:0] $end
$var reg       8 #!   mem[63] [7:0] $end
$var reg       8 $!   mem[64] [7:0] $end
$var reg       8 %!   mem[65] [7:0] $end
$var reg       8 &!   mem[66] [7:0] $end
$var reg       8 '!   mem[67] [7:0] $end
$var reg       8 (!   mem[68] [7:0] $end
$var reg       8 )!   mem[69] [7:0] $end
$var reg       8 *!   mem[70] [7:0] $end
$var reg       8 +!   mem[71] [7:0] $end
$var reg       8 ,!   mem[72] [7:0] $end
$var reg       8 -!   mem[73] [7:0] $end
$var reg       8 .!   mem[74] [7:0] $end
$var reg       8 /!   mem[75] [7:0] $end
$var reg       8 0!   mem[76] [7:0] $end
$var reg       8 1!   mem[77] [7:0] $end
$var reg       8 2!   mem[78] [7:0] $end
$var reg       8 3!   mem[79] [7:0] $end
$var reg       8 4!   mem[80] [7:0] $end
$var reg       8 5!   mem[81] [7:0] $end
$var reg       8 6!   mem[82] [7:0] $end
$var reg       8 7!   mem[83] [7:0] $end
$var reg       8 8!   mem[84] [7:0] $end
$var reg       8 9!   mem[85] [7:0] $end
$var reg       8 :!   mem[86] [7:0] $end
$var reg       8 ;!   mem[87] [7:0] $end
$var reg       8 <!   mem[88] [7:0] $end
$var reg       8 =!   mem[89] [7:0] $end
$var reg       8 >!   mem[90] [7:0] $end
$var reg       8 ?!   mem[91] [7:0] $end
$var reg       8 @!   mem[92] [7:0] $end
$var reg       8 A!   mem[93] [7:0] $end
$var reg       8 B!   mem[94] [7:0] $end
$var reg       8 C!   mem[95] [7:0] $end
$var reg       8 D!   mem[96] [7:0] $end
$var reg       8 E!   mem[97] [7:0] $end
$var reg       8 F!   mem[98] [7:0] $end
$var reg       8 G!   mem[99] [7:0] $end
$var reg       8 H!   mem[100] [7:0] $end
$var reg       8 I!   mem[101] [7:0] $end
$var reg       8 J!   mem[102] [7:0] $end
$var reg       8 K!   mem[103] [7:0] $end
$var reg       8 L!   mem[104] [7:0] $end
$var reg       8 M!   mem[105] [7:0] $end
$var reg       8 N!   mem[106] [7:0] $end
$var reg       8 O!   mem[107] [7:0] $end
$var reg       8 P!   mem[108] [7:0] $end
$var reg       8 Q!   mem[109] [7:0] $end
$var reg       8 R!   mem[110] [7:0] $end
$var reg       8 S!   mem[111] [7:0] $end
$var reg       8 T!   mem[112] [7:0] $end
$var reg       8 U!   mem[113] [7:0] $end
$var reg       8 V!   mem[114] [7:0] $end
$var reg       8 W!   mem[115] [7:0] $end
$var reg       8 X!   mem[116] [7:0] $end
$var reg       8 Y!   mem[117] [7:0] $end
$var reg       8 Z!   mem[118] [7:0] $end
$var reg       8 [!   mem[119] [7:0] $end
$var reg       8 \!   mem[120] [7:0] $end
$var reg       8 ]!   mem[121] [7:0] $end
$var reg       8 ^!   mem[122] [7:0] $end
$var reg       8 _!   mem[123] [7:0] $end
$var reg       8 `!   mem[124] [7:0] $end
$var reg       8 a!   mem[125] [7:0] $end
$var reg       8 b!   mem[126] [7:0] $end
$var reg       8 c!   mem[127] [7:0] $end
$var reg       8 d!   mem[128] [7:0] $end
$var reg       8 e!   mem[129] [7:0] $end
$var reg       8 f!   mem[130] [7:0] $end
$var reg       8 g!   mem[131] [7:0] $end
$var reg       8 h!   mem[132] [7:0] $end
$var reg       8 i!   mem[133] [7:0] $end
$var reg       8 j!   mem[134] [7:0] $end
$var reg       8 k!   mem[135] [7:0] $end
$var reg       8 l!   mem[136] [7:0] $end
$var reg       8 m!   mem[137] [7:0] $end
$var reg       8 n!   mem[138] [7:0] $end
$var reg       8 o!   mem[139] [7:0] $end
$var reg       8 p!   mem[140] [7:0] $end
$var reg       8 q!   mem[141] [7:0] $end
$var reg       8 r!   mem[142] [7:0] $end
$var reg       8 s!   mem[143] [7:0] $end
$var reg       8 t!   mem[144] [7:0] $end
$var reg       8 u!   mem[145] [7:0] $end
$var reg       8 v!   mem[146] [7:0] $end
$var reg       8 w!   mem[147] [7:0] $end
$var reg       8 x!   mem[148] [7:0] $end
$var reg       8 y!   mem[149] [7:0] $end
$var reg       8 z!   mem[150] [7:0] $end
$var reg       8 {!   mem[151] [7:0] $end
$var reg       8 |!   mem[152] [7:0] $end
$var reg       8 }!   mem[153] [7:0] $end
$var reg       8 ~!   mem[154] [7:0] $end
$var reg       8 !"   mem[155] [7:0] $end
$var reg       8 ""   mem[156] [7:0] $end
$var reg       8 #"   mem[157] [7:0] $end
$var reg       8 $"   mem[158] [7:0] $end
$var reg       8 %"   mem[159] [7:0] $end
$var reg       8 &"   mem[160] [7:0] $end
$var reg       8 '"   mem[161] [7:0] $end
$var reg       8 ("   mem[162] [7:0] $end
$var reg       8 )"   mem[163] [7:0] $end
$var reg       8 *"   mem[164] [7:0] $end
$var reg       8 +"   mem[165] [7:0] $end
$var reg       8 ,"   mem[166] [7:0] $end
$var reg       8 -"   mem[167] [7:0] $end
$var reg       8 ."   mem[168] [7:0] $end
$var reg       8 /"   mem[169] [7:0] $end
$var reg       8 0"   mem[170] [7:0] $end
$var reg       8 1"   mem[171] [7:0] $end
$var reg       8 2"   mem[172] [7:0] $end
$var reg       8 3"   mem[173] [7:0] $end
$var reg       8 4"   mem[174] [7:0] $end
$var reg       8 5"   mem[175] [7:0] $end
$var reg       8 6"   mem[176] [7:0] $end
$var reg       8 7"   mem[177] [7:0] $end
$var reg       8 8"   mem[178] [7:0] $end
$var reg       8 9"   mem[179] [7:0] $end
$var reg       8 :"   mem[180] [7:0] $end
$var reg       8 ;"   mem[181] [7:0] $end
$var reg       8 <"   mem[182] [7:0] $end
$var reg       8 ="   mem[183] [7:0] $end
$var reg       8 >"   mem[184] [7:0] $end
$var reg       8 ?"   mem[185] [7:0] $end
$var reg       8 @"   mem[186] [7:0] $end
$var reg       8 A"   mem[187] [7:0] $end
$var reg       8 B"   mem[188] [7:0] $end
$var reg       8 C"   mem[189] [7:0] $end
$var reg       8 D"   mem[190] [7:0] $end
$var reg       8 E"   mem[191] [7:0] $end
$var reg       8 F"   mem[192] [7:0] $end
$var reg       8 G"   mem[193] [7:0] $end
$var reg       8 H"   mem[194] [7:0] $end
$var reg       8 I"   mem[195] [7:0] $end
$var reg       8 J"   mem[196] [7:0] $end
$var reg       8 K"   mem[197] [7:0] $end
$var reg       8 L"   mem[198] [7:0] $end
$var reg       8 M"   mem[199] [7:0] $end
$var reg       8 N"   mem[200] [7:0] $end
$var reg       8 O"   mem[201] [7:0] $end
$var reg       8 P"   mem[202] [7:0] $end
$var reg       8 Q"   mem[203] [7:0] $end
$var reg       8 R"   mem[204] [7:0] $end
$var reg       8 S"   mem[205] [7:0] $end
$var reg       8 T"   mem[206] [7:0] $end
$var reg       8 U"   mem[207] [7:0] $end
$var reg       8 V"   mem[208] [7:0] $end
$var reg       8 W"   mem[209] [7:0] $end
$var reg       8 X"   mem[210] [7:0] $end
$var reg       8 Y"   mem[211] [7:0] $end
$var reg       8 Z"   mem[212] [7:0] $end
$var reg       8 ["   mem[213] [7:0] $end
$var reg       8 \"   mem[214] [7:0] $end
$var reg       8 ]"   mem[215] [7:0] $end
$var reg       8 ^"   mem[216] [7:0] $end
$var reg       8 _"   mem[217] [7:0] $end
$var reg       8 `"   mem[218] [7:0] $end
$var reg       8 a"   mem[219] [7:0] $end
$var reg       8 b"   mem[220] [7:0] $end
$var reg       8 c"   mem[221] [7:0] $end
$var reg       8 d"   mem[222] [7:0] $end
$var reg       8 e"   mem[223] [7:0] $end
$var reg       8 f"   mem[224] [7:0] $end
$var reg       8 g"   mem[225] [7:0] $end
$var reg       8 h"   mem[226] [7:0] $end
$var reg       8 i"   mem[227] [7:0] $end
$var reg       8 j"   mem[228] [7:0] $end
$var reg       8 k"   mem[229] [7:0] $end
$var reg       8 l"   mem[230] [7:0] $end
$var reg       8 m"   mem[231] [7:0] $end
$var reg       8 n"   mem[232] [7:0] $end
$var reg       8 o"   mem[233] [7:0] $end
$var reg       8 p"   mem[234] [7:0] $end
$var reg       8 q"   mem[235] [7:0] $end
$var reg       8 r"   mem[236] [7:0] $end
$var reg       8 s"   mem[237] [7:0] $end
$var reg       8 t"   mem[238] [7:0] $end
$var reg       8 u"   mem[239] [7:0] $end
$var reg       8 v"   mem[240] [7:0] $end
$var reg       8 w"   mem[241] [7:0] $end
$var reg       8 x"   mem[242] [7:0] $end
$var reg       8 y"   mem[243] [7:0] $end
$var reg       8 z"   mem[244] [7:0] $end
$var reg       8 {"   mem[245] [7:0] $end
$var reg       8 |"   mem[246] [7:0] $end
$var reg       8 }"   mem[247] [7:0] $end
$var reg       8 ~"   mem[248] [7:0] $end
$var reg       8 !#   mem[249] [7:0] $end
$var reg       8 "#   mem[250] [7:0] $end
$var reg       8 ##   mem[251] [7:0] $end
$var reg       8 $#   mem[252] [7:0] $end
$var reg       8 %#   mem[253] [7:0] $end
$var reg       8 &#   mem[254] [7:0] $end
$var reg       8 '#   mem[255] [7:0] $end
$var reg       8 (#   wr_pointer [7:0] $end
$var reg       8 )#   rd_pointer [7:0] $end
$var reg       8 *#   status_cnt [7:0] $end
$var wire      1 +#   mod_sel  $end
$upscope $end

$upscope $end

$enddefinitions $end
$dumpvars
b100000000 8
b1000 7
b1000 6
b100000000 #
b1000 "
b1000 !
0$
0%
x&
x'
bx (
z)
z*
z+
bz ,
0-
0.
bx /
b0 0
x1
x2
03
14
x5
09
0:
x;
x<
x=
bx >
0?
1@
b0 A
bx B
bx C
bx D
bx E
bx F
bx G
bx H
bx I
bx J
bx K
bx L
bx M
bx N
bx O
bx P
bx Q
bx R
bx S
bx T
bx U
bx V
bx W
bx X
bx Y
bx Z
bx [
bx \
bx ]
bx ^
bx _
bx `
bx a
bx b
bx c
bx d
bx e
bx f
bx g
bx h
bx i
bx j
bx k
bx l
bx m
bx n
bx o
bx p
bx q
bx r
bx s
bx t
bx u
bx v
bx w
bx x
bx y
bx z
bx {
bx |
bx }
bx ~
bx !!
bx "!
bx #!
bx $!
bx %!
bx &!
bx '!
bx (!
bx )!
bx *!
bx +!
bx ,!
bx -!
bx .!
bx /!
bx 0!
bx 1!
bx 2!
bx 3!
bx 4!
bx 5!
bx 6!
bx 7!
bx 8!
bx 9!
bx :!
bx ;!
bx <!
bx =!
bx >!
bx ?!
bx @!
bx A!
bx B!
bx C!
bx D!
bx E!
bx F!
bx G!
bx H!
bx I!
bx J!
bx K!
bx L!
bx M!
bx N!
bx O!
bx P!
bx Q!
bx R!
bx S!
bx T!
bx U!
bx V!
bx W!
bx X!
bx Y!
bx Z!
bx [!
bx \!
bx ]!
bx ^!
bx _!
bx `!
bx a!
bx b!
bx c!
bx d!
bx e!
bx f!
bx g!
bx h!
bx i!
bx j!
bx k!
bx l!
bx m!
bx n!
bx o!
bx p!
bx q!
bx r!
bx s!
bx t!
bx u!
bx v!
bx w!
bx x!
bx y!
bx z!
bx {!
bx |!
bx }!
bx ~!
bx !"
bx ""
bx #"
bx $"
bx %"
bx &"
bx '"
bx ("
bx )"
bx *"
bx +"
bx ,"
bx -"
bx ."
bx /"
bx 0"
bx 1"
bx 2"
bx 3"
bx 4"
bx 5"
bx 6"
bx 7"
bx 8"
bx 9"
bx :"
bx ;"
bx <"
bx ="
bx >"
bx ?"
bx @"
bx A"
bx B"
bx C"
bx D"
bx E"
bx F"
bx G"
bx H"
bx I"
bx J"
bx K"
bx L"
bx M"
bx N"
bx O"
bx P"
bx Q"
bx R"
bx S"
bx T"
bx U"
bx V"
bx W"
bx X"
bx Y"
bx Z"
bx ["
bx \"
bx ]"
bx ^"
bx _"
bx `"
bx a"
bx b"
bx c"
bx d"
bx e"
bx f"
bx g"
bx h"
bx i"
bx j"
bx k"
bx l"
bx m"
bx n"
bx o"
bx p"
bx q"
bx r"
bx s"
bx t"
bx u"
bx v"
bx w"
bx x"
bx y"
bx z"
bx {"
bx |"
bx }"
bx ~"
bx !#
bx "#
bx ##
bx $#
bx %#
bx &#
bx '#
b0 (#
b0 )#
b0 *#
1+#
$end
#5
1$
1%
1:
1.
19
1-
b1000 /
11
02
15
1;
0<
1=
b1000 >
#10
0$
09
0-
#15
1$
19
1-
b1 (#
b1000 B
b1 *#
b11101010 /
b11101010 >
0@
04
#20
0$
09
0-
#25
1$
19
1-
b10 (#
b11101010 C
b10 *#
b10000010 /
b10000010 >
#30
0$
09
0-
#35
0%
1$
19
1-
0:
0.
b0 /
01
05
0;
0=
b0 >
b0 (#
b0 *#
1@
14
#40
0$
09
0-
#45
1$
19
1-
#50
0$
09
0-
#55
1%
1$
19
1-
1:
1.
b11001111 /
11
15
1;
1=
b11001111 >
#60
0$
09
0-
#65
1$
19
1-
b1 (#
b11001111 B
b1 *#
b11010001 /
b11010001 >
0@
04
#70
0$
09
0-
#75
1$
19
1-
b10 (#
b11010001 C
b10 *#
b10001000 /
b10001000 >
#80
0$
09
0-
#85
1$
19
1-
b11 (#
b10001000 D
b11 *#
b11110101 /
b11110101 >
#90
0$
09
0-
#95
1$
19
1-
b100 (#
b11110101 E
b100 *#
b10111 /
b10111 >
#100
0$
09
0-
#105
1$
19
1-
b101 (#
b10111 F
b101 *#
b11101101 /
b11101101 >
#110
0$
09
0-
#115
1$
19
1-
b110 (#
b11101101 G
b110 *#
b1111010 /
b1111010 >
#120
0$
09
0-
#125
1$
19
1-
b111 (#
b1111010 H
b111 *#
b10111011 /
b10111011 >
#130
0$
09
0-
#135
1$
19
1-
b1000 (#
b10111011 I
b1000 *#
b10110001 /
b10110001 >
#140
0$
09
0-
#145
1$
19
1-
b1001 (#
b10110001 J
b1001 *#
b1011101 /
b1011101 >
#150
0$
09
0-
#155
1$
19
1-
b1010 (#
b1011101 K
b1010 *#
b10111110 /
b10111110 >
#160
0$
09
0-
#165
1$
19
1-
b1011 (#
b10111110 L
b1011 *#
b11010100 /
b11010100 >
#170
0$
09
0-
#175
1$
19
1-
b1100 (#
b11010100 M
b1100 *#
b10011111 /
b10011111 >
#180
0$
09
0-
#185
0%
1$
19
1-
0:
0.
b0 (#
b0 *#
1@
14
#190
0$
09
0-
#195
1$
19
1-
#200
0$
09
0-
#205
1%
1$
19
1-
1:
1.
b1 (#
b10011111 B
b1 *#
b100000 /
b100000 >
0@
04
#210
0$
09
0-
#215
1$
19
1-
b10 (#
b100000 C
b10 *#
b1010101 /
b1010101 >
#220
0$
09
0-
#225
1$
19
1-
b11 (#
b1010101 D
b11 *#
b1000000 /
b1000000 >
#230
0$
09
0-
#235
1$
19
1-
b100 (#
b1000000 E
b100 *#
b11100000 /
b11100000 >
#240
0$
09
0-
#245
1$
19
1-
b101 (#
b11100000 F
b101 *#
b110101 /
b110101 >
#250
0$
09
0-
#255
1$
19
1-
b110 (#
b110101 G
b110 *#
b1000000 /
b1000000 >
#260
0$
09
0-
#265
1$
19
1-
b111 (#
b1000000 H
b111 *#
b11111111 /
b11111111 >
#270
0$
09
0-
#275
1$
19
1-
b1000 (#
b11111111 I
b1000 *#
b1110100 /
b1110100 >
#280
0$
09
0-
#285
1$
19
1-
b1001 (#
b1110100 J
b1001 *#
b10011110 /
b10011110 >
#290
0$
09
0-
#295
1$
19
1-
b1010 (#
b10011110 K
b1010 *#
b1111101 /
b1111101 >
#300
0$
09
0-
#305
1$
19
1-
b1011 (#
b1111101 L
b1011 *#
b10010 /
b10010 >
#310
0$
09
0-
#315
1$
19
1-
b1100 (#
b10010 M
b1100 *#
b1011011 /
b1011011 >
#320
0$
09
0-
#325
1$
19
1-
b1101 (#
b1011011 N
b1101 *#
b1011010 /
b1011010 >
#330
0$
09
0-
#335
1$
19
1-
b1110 (#
b1011010 O
b1110 *#
b1110 /
b1110 >
#340
0$
09
0-
#345
1$
19
1-
b1111 (#
b1110 P
b1111 *#
b1110111 /
b1110111 >
#350
0$
09
0-
#355
1$
19
1-
b10000 (#
b1110111 Q
b10000 *#
b10010110 /
b10010110 >
#360
0$
09
0-
#365
1$
19
1-
b10001 (#
b10010110 R
b10001 *#
b1101001 /
b1101001 >
#370
0$
09
0-
#375
1$
19
1-
b10010 (#
b1101001 S
b10010 *#
b11110010 /
b11110010 >
#380
0$
09
0-
#385
1$
19
1-
b10011 (#
b11110010 T
b10011 *#
b110000 /
b110000 >
#390
0$
09
0-
#395
1$
19
1-
b10100 (#
b110000 U
b10100 *#
b100011 /
b100011 >
#400
0$
09
0-
#405
1$
19
1-
b10101 (#
b100011 V
b10101 *#
b11001100 /
b11001100 >
#410
0$
09
0-
#415
1$
19
1-
b10110 (#
b11001100 W
b10110 *#
b101001 /
b101001 >
#420
0$
09
0-
#425
1$
19
1-
b10111 (#
b101001 X
b10111 *#
b111100 /
b111100 >
#430
0$
09
0-
#435
1$
19
1-
b11000 (#
b111100 Y
b11000 *#
b100 /
b100 >
#440
0$
09
0-
#445
1$
19
1-
b11001 (#
b100 Z
b11001 *#
b10000001 /
b10000001 >
#450
0$
09
0-
#455
1$
19
1-
b11010 (#
b10000001 [
b11010 *#
b10110100 /
b10110100 >
#460
0$
09
0-
#465
1$
19
1-
b11011 (#
b10110100 \
b11011 *#
b10011011 /
b10011011 >
#470
0$
09
0-
#475
1$
19
1-
b11100 (#
b10011011 ]
b11100 *#
b111000 /
b111000 >
#480
0$
09
0-
#485
1$
19
1-
b11101 (#
b111000 ^
b11101 *#
b10001010 /
b10001010 >
#490
0$
09
0-
#495
1$
19
1-
b11110 (#
b10001010 _
b11110 *#
b10010001 /
b10010001 >
#500
0$
09
0-
#505
1$
19
1-
b11111 (#
b10010001 `
b11111 *#
b1001101 /
b1001101 >
#510
0$
09
0-
#515
1$
19
1-
b100000 (#
b1001101 a
b100000 *#
b10111111 /
b10111111 >
#520
0$
09
0-
#525
1$
19
1-
b100001 (#
b10111111 b
b100001 *#
b11100110 /
b11100110 >
#530
0$
09
0-
#535
1$
19
1-
b100010 (#
b11100110 c
b100010 *#
b11000010 /
b11000010 >
#540
0$
09
0-
#545
1$
19
1-
b100011 (#
b11000010 d
b100011 *#
b1010011 /
b1010011 >
#550
0$
09
0-
#555
1$
19
1-
b100100 (#
b1010011 e
b100100 *#
b10011001 /
b10011001 >
#560
0$
09
0-
#565
1$
19
1-
b100101 (#
b10011001 f
b100101 *#
b10010100 /
b10010100 >
#570
0$
09
0-
#575
1$
19
1-
b100110 (#
b10010100 g
b100110 *#
b1000101 /
b1000101 >
#580
0$
09
0-
#585
1$
19
1-
b100111 (#
b1000101 h
b100111 *#
b10101011 /
b10101011 >
#590
0$
09
0-
#595
1$
19
1-
b101000 (#
b10101011 i
b101000 *#
b11000110 /
b11000110 >
#600
0$
09
0-
#605
1$
19
1-
b101001 (#
b11000110 j
b101001 *#
b10010111 /
b10010111 >
#610
0$
09
0-
#615
1$
19
1-
b101010 (#
b10010111 k
b101010 *#
b11100 /
b11100 >
#620
0$
09
0-
#625
1$
19
1-
b101011 (#
b11100 l
b101011 *#
b1010111 /
b1010111 >
#630
0$
09
0-
#635
1$
19
1-
b101100 (#
b1010111 m
b101100 *#
b1000111 /
b1000111 >
#640
0$
09
0-
#645
1$
19
1-
b101101 (#
b1000111 n
b101101 *#
b11101100 /
b11101100 >
#650
0$
09
0-
#655
1$
19
1-
b101110 (#
b11101100 o
b101110 *#
b1000110 /
b1000110 >
#660
0$
09
0-
#665
1$
19
1-
b101111 (#
b1000110 p
b101111 *#
b1010110 /
b1010110 >
#670
0$
09
0-
#675
1$
19
1-
b110000 (#
b1010110 q
b110000 *#
b11010 /
b11010 >
#680
0$
09
0-
#685
1$
19
1-
b110001 (#
b11010 r
b110001 *#
b10010100 /
b10010100 >
#690
0$
09
0-
#695
1$
19
1-
b110010 (#
b10010100 s
b110010 *#
b11000011 /
b11000011 >
#700
0$
09
0-
#705
1$
19
1-
b110011 (#
b11000011 t
b110011 *#
b10100111 /
b10100111 >
#710
0$
09
0-
#715
1$
19
1-
b110100 (#
b10100111 u
b110100 *#
b1000001 /
b1000001 >
#720
0$
09
0-
#725
1$
19
1-
b110101 (#
b1000001 v
b110101 *#
b10010000 /
b10010000 >
#730
0$
09
0-
#735
1$
19
1-
b110110 (#
b10010000 w
b110110 *#
b10010011 /
b10010011 >
#740
0$
09
0-
#745
1$
19
1-
b110111 (#
b10010011 x
b110111 *#
b1001101 /
b1001101 >
#750
0$
09
0-
#755
1$
19
1-
b111000 (#
b1001101 y
b111000 *#
b10111011 /
b10111011 >
#760
0$
09
0-
#765
1$
19
1-
b111001 (#
b10111011 z
b111001 *#
b11011110 /
b11011110 >
#770
0$
09
0-
#775
1$
19
1-
b111010 (#
b11011110 {
b111010 *#
b10110111 /
b10110111 >
#780
0$
09
0-
#785
1$
19
1-
b111011 (#
b10110111 |
b111011 *#
b1000101 /
b1000101 >
#790
0$
09
0-
#795
1$
19
1-
b111100 (#
b1000101 }
b111100 *#
b10001000 /
b10001000 >
#800
0$
09
0-
#805
1$
19
1-
b111101 (#
b10001000 ~
b111101 *#
b10000000 /
b10000000 >
#810
0$
09
0-
#815
1$
19
1-
b111110 (#
b10000000 !!
b111110 *#
b101101 /
b101101 >
#820
0$
09
0-
#825
1$
19
1-
b111111 (#
b101101 "!
b111111 *#
b10010000 /
b10010000 >
#830
0$
09
0-
#835
1$
19
1-
b1000000 (#
b10010000 #!
b1000000 *#
b10101000 /
b10101000 >
#840
0$
09
0-
#845
1$
19
1-
b1000001 (#
b10101000 $!
b1000001 *#
b1110101 /
b1110101 >
#850
0$
09
0-
#855
1$
19
1-
b1000010 (#
b1110101 %!
b1000010 *#
b11110111 /
b11110111 >
#860
0$
09
0-
#865
1$
19
1-
b1000011 (#
b11110111 &!
b1000011 *#
b101111 /
b101111 >
#870
0$
09
0-
#875
1$
19
1-
b1000100 (#
b101111 '!
b1000100 *#
b11011 /
b11011 >
#880
0$
09
0-
#885
1$
19
1-
b1000101 (#
b11011 (!
b1000101 *#
b10111101 /
b10111101 >
#890
0$
09
0-
#895
1$
19
1-
b1000110 (#
b10111101 )!
b1000110 *#
b10100 /
b10100 >
#900
0$
09
0-
#905
1$
19
1-
b1000111 (#
b10100 *!
b1000111 *#
b100000 /
b100000 >
#910
0$
09
0-
#915
1$
19
1-
b1001000 (#
b100000 +!
b1001000 *#
b11100010 /
b11100010 >
#920
0$
09
0-
#925
1$
19
1-
b1001001 (#
b11100010 ,!
b1001001 *#
b1011000 /
b1011000 >
#930
0$
09
0-
#935
1$
19
1-
b1001010 (#
b1011000 -!
b1001010 *#
b10000100 /
b10000100 >
#940
0$
09
0-
#945
1$
19
1-
b1001011 (#
b10000100 .!
b1001011 *#
b1100101 /
b1100101 >
#950
0$
09
0-
#955
1$
19
1-
b1001100 (#
b1100101 /!
b1001100 *#
b11111011 /
b11111011 >
#960
0$
09
0-
#965
1$
19
1-
b1001101 (#
b11111011 0!
b1001101 *#
b1000111 /
b1000111 >
#970
0$
09
0-
#975
1$
19
1-
b1001110 (#
b1000111 1!
b1001110 *#
#980
0$
09
0-
#985
1$
19
1-
b1001111 (#
b1000111 2!
b1001111 *#
b11111101 /
b11111101 >
#990
0$
09
0-
#995
1$
19
1-
b1010000 (#
b11111101 3!
b1010000 *#
b1101000 /
b1101000 >
#1000
0$
09
0-
#1005
1$
19
1-
b1010001 (#
b1101000 4!
b1010001 *#
b10001000 /
b10001000 >
#1010
0$
09
0-
#1015
1$
19
1-
b1010010 (#
b10001000 5!
b1010010 *#
b1011110 /
b1011110 >
#1020
0$
09
0-
#1025
1$
19
1-
b1010011 (#
b1011110 6!
b1010011 *#
b11101000 /
b11101000 >
#1030
0$
09
0-
#1035
1$
19
1-
b1010100 (#
b11101000 7!
b1010100 *#
b101000 /
b101000 >
#1040
0$
09
0-
#1045
1$
19
1-
b1010101 (#
b101000 8!
b1010101 *#
b11101 /
b11101 >
#1050
0$
09
0-
#1055
1$
19
1-
b1010110 (#
b11101 9!
b1010110 *#
b11000111 /
b11000111 >
#1060
0$
09
0-
#1065
1$
19
1-
b1010111 (#
b11000111 :!
b1010111 *#
b100110 /
b100110 >
#1070
0$
09
0-
#1075
1$
19
1-
b1011000 (#
b100110 ;!
b1011000 *#
b111011 /
b111011 >
#1080
0$
09
0-
#1085
1$
19
1-
b1011001 (#
b111011 <!
b1011001 *#
b101 /
b101 >
#1090
0$
09
0-
#1095
1$
19
1-
b1011010 (#
b101 =!
b1011010 *#
b10000100 /
b10000100 >
#1100
0$
09
0-
#1105
1$
19
1-
b1011011 (#
b10000100 >!
b1011011 *#
b10111000 /
b10111000 >
#1110
0$
09
0-
#1115
1$
19
1-
b1011100 (#
b10111000 ?!
b1011100 *#
b10100001 /
b10100001 >
#1120
0$
09
0-
#1125
1$
19
1-
b1011101 (#
b10100001 @!
b1011101 *#
b1000000 /
b1000000 >
#1130
0$
09
0-
#1135
1$
19
1-
b1011110 (#
b1000000 A!
b1011110 *#
b10010011 /
b10010011 >
#1140
0$
09
0-
#1145
1$
19
1-
b1011111 (#
b10010011 B!
b1011111 *#
b10011100 /
b10011100 >
#1150
0$
09
0-
#1155
1$
19
1-
b1100000 (#
b10011100 C!
b1100000 *#
b1011010 /
b1011010 >
#1160
0$
09
0-
#1165
1$
19
1-
b1100001 (#
b1011010 D!
b1100001 *#
b11001110 /
b11001110 >
#1170
0$
09
0-
#1175
1$
19
1-
b1100010 (#
b11001110 E!
b1100010 *#
b11110110 /
b11110110 >
#1180
0$
09
0-
#1185
1$
19
1-
b1100011 (#
b11110110 F!
b1100011 *#
b11010100 /
b11010100 >
#1190
0$
09
0-
#1195
1$
19
1-
b1100100 (#
b11010100 G!
b1100100 *#
b1100111 /
b1100111 >
#1200
0$
09
0-
#1205
1$
19
1-
b1100101 (#
b1100111 H!
b1100101 *#
b10101111 /
b10101111 >
#1210
0$
09
0-
