AHB/dump.vcd
$date
    May 31, 2023  12:39:33
$end
$version
    TOOL:	xmsim(64)	22.03-s002
$end
$timescale
    1 ns
$end

$scope module testbench $end
$var reg       1 !    clk $end

$scope module vintf $end
$var wire      1 "    HCLK  $end
$var reg       1 #    HWRITE $end
$var reg      32 $    HADDR [31:0] $end
$var reg       3 %    HBURST [2:0] $end
$var reg       2 &    HSIZE [1:0] $end
$var reg       1 '    HREADY $end
$var reg       2 (    HTRANS [1:0] $end
$var reg      32 )    HRDATA [31:0] $end
$var reg      32 *    HWDATA [31:0] $end
$upscope $end

$upscope $end

$enddefinitions $end
$dumpvars
0!
0"
x#
bx $
bx %
bx &
1'
bx (
bx )
bx *
$end
#5
1!
1"
1#
b11001100101111100100011011001110 $
b10 (
b1 %
#10
0!
0"
#15
1!
1"
b11 (
b10 &
b11001100101111100100011011001110 *
b11001100101111100100011011010000 $
#20
0!
0"
#25
1!
1"
b1 (
#30
0!
0"
#35
1!
1"
#40
0!
0"
#45
1!
1"
b11 (
b11001100101111100100011011010000 *
b11001100101111100100011011010010 $
#50
0!
0"
#55
1!
1"
b1 (
#60
0!
0"
#65
1!
1"
#70
0!
0"
#75
1!
1"
#80
0!
0"
#85
1!
1"
#90
0!
0"
#95
0'
1!
1"
#100
0!
0"
#105
1!
1"
#110
0!
0"
#115
1!
1"
#120
0!
0"
#125
1'
1!
b11 (
b11001100101111100100011011010010 *
b11001100101111100100011011010100 $
1"
b11001100101111100100011011010100 *
b11001100101111100100011011010110 $
#130
0!
0"
#135
1!
1"
b11001100101111100100011011010110 *
b11001100101111100100011011011000 $
#140
0!
0"
#145
1!
1"
b1 (
#150
0!
0"
#155
1!
1"
b11 (
b11001100101111100100011011011000 *
b11001100101111100100011011011010 $
#160
0!
0"
#165
1!
1"
b11001100101111100100011011011010 *
b11001100101111100100011011011100 $
#170
0!
0"
#175
1!
1"
b11001100101111100100011011011100 *
b11001100101111100100011011011110 $
#180
0!
0"
#185
0'
1!
1"
#190
0!
0"
#195
1!
1"
#200
0!
0"
#205
1'
1!
b11001100101111100100011011011110 *
b11001100101111100100011011100000 $
1"
b1 (
#210
0!
0"
#215
1!
1"
#220
0!
0"
#225
1!
1"
#230
0!
0"
#235
1!
1"
#240
0!
0"
#245
1!
1"
b11 (
b11001100101111100100011011100000 *
b11001100101111100100011011100010 $
#250
0!
0"
#255
1!
1"
b1 (
#260
0!
0"
#265
1!
1"
b11 (
b11001100101111100100011011100010 *
b11001100101111100100011011100100 $
#270
0!
0"
#275
1!
1"
b1 (
#280
0!
0"
#285
1!
1"
#290
0!
0"
#295
1!
1"
#300
0!
0"
#305
1!
1"
b11 (
b11001100101111100100011011100100 *
b11001100101111100100011011100110 $
#310
0!
0"
#315
1!
1"
b11001100101111100100011011100110 *
b11001100101111100100011011101000 $
#320
0!
0"
#325
1!
1"
b11001100101111100100011011101000 *
b11001100101111100100011011101010 $
#330
0!
0"
#335
1!
1"
b11001100101111100100011011101010 *
b11001100101111100100011011101100 $
#340
0!
0"
#345
1!
1"
b1 (
#350
0!
0"
#355
1!
1"
#360
0!
0"
#365
1!
1"
#370
0!
0"
#375
1!
1"
b11 (
b11001100101111100100011011101100 *
b11001100101111100100011011101110 $
b0 $
b0 (
b0 %
#380
0!
0"
#385
1!
1"
b1101100011000110010010010101001 $
b10 (
b110 %
#390
0!
0"
#395
1!
1"
#400
0!
0"
#405
1!
1"
#410
0!
0"
#415
1!
1"
b1101100011000110010010010101001 *
b1101100011000110010010010101101 $
b11 (
#420
0!
0"
#425
1!
1"
b1101100011000110010010010101101 *
b1101100011000110010010010110001 $
#430
0!
0"
#435
1!
1"
b1 (
#440
0!
0"
#445
1!
1"
b1101100011000110010010010110001 *
b1101100011000110010010010110101 $
b11 (
#450
0!
0"
#455
1!
1"
b1 (
#460
0!
0"
#465
1!
1"
#470
0!
0"
#475
1!
1"
#480
0!
0"
#485
1!
1"
b1101100011000110010010010110101 *
b1101100011000110010010010111001 $
b11 (
#490
0!
0"
#495
1!
1"
b1 (
#500
0!
0"
#505
1!
1"
b1101100011000110010010010111001 *
b1101100011000110010010010111101 $
b11 (
#510
0!
0"
#515
1!
1"
b1 (
#520
0!
0"
#525
1!
1"
b1101100011000110010010010111101 *
b1101100011000110010010011000001 $
b11 (
b1101100011000110010010010000000 $
#530
0!
0"
#535
1!
1"
b1 (
#540
0!
0"
#545
1!
1"
#550
0!
0"
#555
1!
1"
#560
0!
0"
#565
1!
1"
#570
0!
0"
#575
1!
1"
#580
0!
0"
#585
1!
1"
b1101100011000110010010010000000 *
b1101100011000110010010010000100 $
b11 (
#590
0!
0"
#595
1!
1"
b1101100011000110010010010000100 *
b1101100011000110010010010001000 $
#600
0!
0"
#605
1!
1"
b1101100011000110010010010001000 *
b1101100011000110010010010001100 $
#610
0!
0"
#615
1!
1"
b1 (
#620
0!
0"
#625
1!
1"
b1101100011000110010010010001100 *
b1101100011000110010010010010000 $
b11 (
#630
0!
0"
#635
1!
1"
b1 (
#640
0!
0"
#645
1!
1"
#650
0!
0"
#655
1!
1"
#660
0!
0"
#665
1!
1"
b1101100011000110010010010010000 *
b1101100011000110010010010010100 $
b11 (
#670
0!
0"
#675
1!
1"
b1101100011000110010010010010100 *
b1101100011000110010010010011000 $
#680
0!
0"
#685
1!
1"
b1101100011000110010010010011000 *
b1101100011000110010010010011100 $
#690
0!
0"
#695
1!
1"
b1101100011000110010010010011100 *
b1101100011000110010010010100000 $
#700
0!
0"
#705
1!
1"
b1 (
#710
0!
0"
#715
1!
1"
b1101100011000110010010010100000 *
b1101100011000110010010010100100 $
b11 (
#720
0!
0"
#725
1!
1"
b1101100011000110010010010100100 *
b1101100011000110010010010101000 $
b0 $
b0 (
b0 %
#730
0!
0"
#735
1!
1"
b10100011100010000000011010110100 $
b10 (
b110 %
#740
0!
0"
#745
1!
1"
#750
0!
0"
#755
1!
1"
b10100011100010000000011010110100 *
b10100011100010000000011010111000 $
b11 (
#760
0!
0"
#765
1!
1"
b1 (
#770
0!
0"
#775
1!
1"
b10100011100010000000011010111000 *
b10100011100010000000011010111100 $
b11 (
#780
0!
0"
#785
1!
1"
b1 (
#790
0!
0"
#795
1!
1"
#800
0!
0"
#805
1!
1"
b10100011100010000000011010111100 *
b10100011100010000000011011000000 $
b11 (
b10100011100010000000011010000000 $
#810
0!
0"
#815
1!
1"
b10100011100010000000011010000000 *
b10100011100010000000011010000100 $
#820
0!
0"
#825
1!
1"
b10100011100010000000011010000100 *
b10100011100010000000011010001000 $
#830
0!
0"
#835
1!
1"
b10100011100010000000011010001000 *
b10100011100010000000011010001100 $
#840
0!
0"
#845
1!
1"
b10100011100010000000011010001100 *
b10100011100010000000011010010000 $
#850
0!
0"
#855
1!
1"
b10100011100010000000011010010000 *
b10100011100010000000011010010100 $
#860
0!
0"
#865
1!
1"
b10100011100010000000011010010100 *
b10100011100010000000011010011000 $
#870
0!
0"
#875
1!
1"
b1 (
#880
0!
0"
#885
1!
1"
#890
0!
0"
#895
1!
1"
#900
0!
0"
#905
1!
1"
#910
0!
0"
#915
1!
1"
#920
0!
0"
#925
1!
1"
#930
0!
0"
#935
1!
1"
b10100011100010000000011010011000 *
b10100011100010000000011010011100 $
b11 (
#940
0!
0"
#945
1!
1"
b1 (
#950
0!
0"
#955
1!
1"
b10100011100010000000011010011100 *
b10100011100010000000011010100000 $
b11 (
#960
0!
0"
#965
1!
1"
b1 (
#970
0!
0"
#975
1!
1"
#980
0!
0"
#985
1!
1"
b10100011100010000000011010100000 *
b10100011100010000000011010100100 $
b11 (
#990
0!
0"
#995
1!
1"
b1 (
#1000
0!
0"
#1005
1!
1"
#1010
0!
0"
#1015
1!
1"
#1020
0!
0"
#1025
1!
1"
b10100011100010000000011010100100 *
b10100011100010000000011010101000 $
b11 (
#1030
0!
0"
#1035
1!
1"
b10100011100010000000011010101000 *
b10100011100010000000011010101100 $
#1040
0!
0"
#1045
1!
1"
b10100011100010000000011010101100 *
b10100011100010000000011010110000 $
#1050
0!
0"
#1055
1!
1"
b10100011100010000000011010110000 *
b10100011100010000000011010110100 $
b0 $
b0 (
b0 %
#1060
0!
0"
#1065
1!
1"
b1001110011010101010001001101 $
b10 (
b111 %
#1070
0!
0"
#1075
1!
1"
b11 (
b0 &
b1001110011010101010001001101 *
b1001110011010101010001001111 $
#1080
0!
0"
#1085
1!
1"
b1001110011010101010001001111 *
b1001110011010101010001010001 $
#1090
0!
0"
#1095
1!
1"
b1001110011010101010001010001 *
b1001110011010101010001010011 $
#1100
0!
0"
#1105
1!
1"
b1 (
#1110
0!
0"
#1115
1!
1"
b11 (
b1001110011010101010001010011 *
b1001110011010101010001010101 $
#1120
0!
0"
#1125
1!
1"
b1 (
#1130
0!
0"
#1135
1!
1"
b11 (
b1001110011010101010001010101 *
b1001110011010101010001010111 $
#1140
0!
0"
#1145
1!
1"
b1001110011010101010001010111 *
b1001110011010101010001011001 $
#1150
0!
0"
#1155
1!
1"
b1 (
#1160
0!
0"
#1165
1!
1"
#1170
0!
0"
#1175
1!
1"
#1180
0!
0"
#1185
1!
1"
#1190
0!
0"
#1195
1!
1"
b11 (
b1001110011010101010001011001 *
b1001110011010101010001011011 $
#1200
0!
0"
#1205
1!
1"
b1 (
#1210
0!
0"
#1215
1!
1"
b11 (
b1001110011010101010001011011 *
b1001110011010101010001011101 $
#1220
0!
0"
#1225
1!
1"
b1001110011010101010001011101 *
b1001110011010101010001011111 $
#1230
0!
0"
#1235
1!
1"
b1001110011010101010001011111 *
b1001110011010101010001100001 $
#1240
0!
0"
#1245
1!
1"
b1001110011010101010001100001 *
b1001110011010101010001100011 $
#1250
0!
0"
#1255
1!
1"
b1 (
#1260
0!
0"
#1265
1!
1"
b11 (
b1001110011010101010001100011 *
b1001110011010101010001100101 $
#1270
0!
0"
#1275
1!
1"
b1001110011010101010001100101 *
b1001110011010101010001100111 $
#1280
0!
0"
#1285
1!
1"
b1 (
#1290
0!
0"
#1295
1!
1"
b11 (
b1001110011010101010001100111 *
b1001110011010101010001101001 $
#1300
0!
0"
#1305
1!
1"
b1001110011010101010001101001 *
b1001110011010101010001101011 $
#1310
0!
0"
#1315
1!
1"
b1001110011010101010001101011 *
b1001110011010101010001101101 $
b0 $
b0 (
b0 %
#1320
0!
0"
#1325
1!
1"
b10011101101000110101111110001100 $
b10 (
b110 %
#1330
0!
0"
#1335
1!
1"
#1340
0!
0"
#1345
1!
1"
#1350
0!
0"
#1355
1!
1"
b10011101101000110101111110001100 *
b10011101101000110101111110001101 $
b11 (
#1360
0!
0"
#1365
1!
1"
b10011101101000110101111110001101 *
b10011101101000110101111110001110 $
#1370
0!
0"
#1375
1!
1"
b1 (
#1380
0!
0"
#1385
1!
1"
#1390
0!
0"
#1395
1!
1"
b10011101101000110101111110001110 *
b10011101101000110101111110001111 $
b11 (
#1400
0!
0"
#1405
1!
1"
b10011101101000110101111110001111 *
b10011101101000110101111110010000 $
b10011101101000110101111110000000 $
#1410
0!
0"
#1415
1!
1"
b10011101101000110101111110000000 *
b10011101101000110101111110000001 $
#1420
0!
0"
#1425
1!
1"
b10011101101000110101111110000001 *
b10011101101000110101111110000010 $
#1430
0!
0"
#1435
1!
1"
b10011101101000110101111110000010 *
b10011101101000110101111110000011 $
#1440
0!
0"
#1445
1!
1"
b1 (
#1450
0!
0"
#1455
1!
1"
#1460
0!
0"
#1465
1!
1"
b10011101101000110101111110000011 *
b10011101101000110101111110000100 $
b11 (
#1470
0!
0"
#1475
1!
1"
b1 (
#1480
0!
0"
#1485
1!
1"
#1490
0!
0"
#1495
1!
1"
b10011101101000110101111110000100 *
b10011101101000110101111110000101 $
b11 (
#1500
0!
0"
#1505
1!
1"
b1 (
#1510
0!
0"
#1515
1!
1"
b10011101101000110101111110000101 *
b10011101101000110101111110000110 $
b11 (
#1520
0!
0"
#1525
1!
1"
b10011101101000110101111110000110 *
b10011101101000110101111110000111 $
#1530
0!
0"
#1535
1!
1"
b10011101101000110101111110000111 *
b10011101101000110101111110001000 $
#1540
0!
0"
#1545
1!
1"
b10011101101000110101111110001000 *
b10011101101000110101111110001001 $
#1550
0!
0"
#1555
1!
1"
b1 (
#1560
0!
0"
#1565
1!
1"
b10011101101000110101111110001001 *
b10011101101000110101111110001010 $
b11 (
#1570
0!
0"
#1575
1!
1"
b1 (
#1580
0!
0"
#1585
1!
1"
b10011101101000110101111110001010 *
b10011101101000110101111110001011 $
b11 (
#1590
0!
0"
#1595
1!
1"
b10011101101000110101111110001011 *
b10011101101000110101111110001100 $
b0 $
b0 (
b0 %
#1600
0!
0"
#1605
1!
1"
b1011111000010100010100001110000 $
b10 (
b100 %
#1610
0!
0"
#1615
1!
1"
#1620
0!
0"
#1625
1!
1"
#1630
0!
0"
#1635
1!
1"
b1011111000010100010100001110000 *
b10 &
b1011111000010100010100001110100 $
b11 (
#1640
0!
0"
#1645
1!
1"
b1011111000010100010100001110100 *
b1011111000010100010100001111000 $
#1650
0!
0"
#1655
1!
1"
b1011111000010100010100001111000 *
b1011111000010100010100001111100 $
#1660
0!
0"
#1665
1!
1"
b1 (
#1670
0!
0"
#1675
1!
1"
b1011111000010100010100001111100 *
b1011111000010100010100010000000 $
b11 (
b1011111000010100010100001100000 $
#1680
0!
0"
#1685
1!
1"
b1011111000010100010100001100000 *
b1011111000010100010100001100100 $
#1690
0!
0"
#1695
1!
1"
b1011111000010100010100001100100 *
b1011111000010100010100001101000 $
#1700
0!
0"
#1705
1!
1"
b1 (
#1710
0!
0"
#1715
1!
1"
#1720
0!
0"
#1725
1!
1"
b1011111000010100010100001101000 *
b1011111000010100010100001101100 $
b11 (
#1730
0!
0"
#1735
1!
1"
b1011111000010100010100001101100 *
b1011111000010100010100001110000 $
b0 $
b0 (
b0 %
#1740
0!
0"
#1745
1!
1"
#1750
0!
0"
#1755
1!
1"
b10 (
b10111001100000001010001101101110 $
b0 &
b10111001100000001010001101101110 *
#1760
0!
0"
#1765
1!
1"
b0 $
b0 (
#1770
0!
0"
#1775
1!
1"
b1000001100001111101110000010000 $
b10 (
b10 %
#1780
0!
0"
#1785
1!
1"
#1790
0!
0"
#1795
1!
1"
#1800
0!
0"
#1805
1!
1"
#1810
0!
0"
#1815
1!
1"
#1820
0!
0"
#1825
1!
1"
#1830
0!
0"
#1835
1!
1"
b1000001100001111101110000010000 *
b1000001100001111101110000010001 $
b11 (
b1000001100001111101110000001100 $
#1840
0!
0"
#1845
1!
1"
b1 (
#1850
0!
0"
#1855
1!
1"
#1860
0!
0"
#1865
1!
1"
#1870
0!
0"
#1875
1!
1"
#1880
0!
0"
#1885
1!
1"
b1000001100001111101110000001100 *
b1000001100001111101110000001101 $
b11 (
#1890
0!
0"
#1895
1!
1"
b1 (
#1900
0!
0"
#1905
1!
1"
#1910
0!
0"
#1915
1!
1"
#1920
0!
0"
#1925
1!
1"
b1000001100001111101110000001101 *
b1000001100001111101110000001110 $
b11 (
#1930
0!
0"
#1935
1!
1"
b1000001100001111101110000001110 *
b1000001100001111101110000001111 $
b0 $
b0 (
b0 %
#1940
0!
0"
#1945
1!
1"
#1950
0!
0"
#1955
1!
1"
b10 (
b10001110110000000011100110110111 $
b10001110110000000011100110110111 *
#1960
0!
0"
#1965
1!
1"
b0 $
b0 (
#1970
0!
0"
#1975
1!
1"
b1110101000010000100100101110110 $
b10 (
b100 %
#1980
0!
0"
#1985
1!
1"
#1990
0!
0"
#1995
1!
1"
#2000
0!
0"
#2005
1!
1"
b1110101000010000100100101110110 *
b10 &
b1110101000010000100100101111010 $
b11 (
#2010
0!
0"
#2015
1!
1"
b1 (
#2020
0!
0"
#2025
1!
1"
b1110101000010000100100101111010 *
b1110101000010000100100101111110 $
b11 (
#2030
0!
0"
#2035
1!
1"
b1110101000010000100100101111110 *
b1110101000010000100100110000010 $
b1110101000010000100100101100000 $
#2040
0!
0"
#2045
1!
1"
b1 (
#2050
0!
0"
#2055
1!
1"
b1110101000010000100100101100000 *
b1110101000010000100100101100100 $
b11 (
#2060
0!
0"
#2065
1!
1"
b1 (
#2070
0!
0"
#2075
1!
1"
#2080
0!
0"
#2085
1!
1"
b1110101000010000100100101100100 *
b1110101000010000100100101101000 $
b11 (
#2090
0!
0"
#2095
1!
1"
b1 (
#2100
0!
0"
#2105
1!
1"
#2110
0!
0"
#2115
1!
1"
#2120
0!
0"
#2125
1!
1"
b1110101000010000100100101101000 *
b1110101000010000100100101101100 $
b11 (
#2130
0!
0"
#2135
1!
1"
b1110101000010000100100101101100 *
b1110101000010000100100101110000 $
#2140
0!
0"
#2145
1!
1"
b1110101000010000100100101110000 *
b1110101000010000100100101110100 $
b0 $
b0 (
b0 %
#2150
0!
0"
#2155
1!
1"
b11110001010000001010111101111101 $
b10 (
b1 %
#2160
0!
0"
#2165
1!
1"
#2170
0!
0"
#2175
1!
1"
b11 (
b11110001010000001010111101111101 *
b11110001010000001010111101111111 $
#2180
0!
0"
#2185
1!
1"
b11110001010000001010111101111111 *
b11110001010000001010111110000001 $
#2190
0!
0"
#2195
1!
1"
b11110001010000001010111110000001 *
b11110001010000001010111110000011 $
#2200
0!
0"
#2205
1!
1"
b1 (
#2210
0!
0"
#2215
1!
1"
b11 (
b11110001010000001010111110000011 *
b11110001010000001010111110000101 $
#2220
0!
0"
#2225
1!
1"
b1 (
#2230
0!
0"
#2235
1!
1"
b11 (
b11110001010000001010111110000101 *
b11110001010000001010111110000111 $
#2240
0!
0"
#2245
1!
1"
b1 (
#2250
0!
0"
#2255
1!
1"
b11 (
b11110001010000001010111110000111 *
b11110001010000001010111110001001 $
#2260
0!
0"
#2265
1!
1"
b1 (
#2270
0!
0"
#2275
1!
1"
#2280
0!
0"
#2285
1!
1"
b11 (
b11110001010000001010111110001001 *
b11110001010000001010111110001011 $
b0 $
b0 (
b0 %
#2290
0!
0"
#2295
1!
1"
b110010101010100011101010001000 $
b10 (
b10 %
#2300
0!
0"
#2305
1!
1"
#2310
0!
0"
#2315
1!
1"
b110010101010100011101010001000 *
b110010101010100011101010001100 $
b11 (
#2320
0!
0"
#2325
1!
1"
b1 (
#2330
0!
0"
#2335
1!
1"
b110010101010100011101010001100 *
b110010101010100011101010010000 $
b11 (
b110010101010100011101010000000 $
#2340
0!
0"
#2345
1!
1"
b110010101010100011101010000000 *
b110010101010100011101010000100 $
#2350
0!
0"
#2355
1!
1"
b110010101010100011101010000100 *
b110010101010100011101010001000 $
b0 $
b0 (
b0 %
#2360
0!
0"
#2365
1!
1"
b1011100100111100100111000010 $
b10 (
b110 %
#2370
0!
0"
#2375
1!
1"
b1011100100111100100111000010 *
b1011100100111100100111000110 $
b11 (
#2380
0!
0"
#2385
1!
1"
b1011100100111100100111000110 *
b1011100100111100100111001010 $
#2390
0!
0"
#2395
1!
1"
b1011100100111100100111001010 *
b1011100100111100100111001110 $
#2400
0!
0"
#2405
1!
1"
b1 (
#2410
0!
0"
#2415
1!
1"
b1011100100111100100111001110 *
b1011100100111100100111010010 $
b11 (
#2420
0!
0"
#2425
1!
1"
b1011100100111100100111010010 *
b1011100100111100100111010110 $
#2430
0!
0"
#2435
1!
1"
b1011100100111100100111010110 *
b1011100100111100100111011010 $
#2440
0!
0"
#2445
1!
1"
b1011100100111100100111011010 *
b1011100100111100100111011110 $
#2450
0!
0"
#2455
1!
1"
b1011100100111100100111011110 *
b1011100100111100100111100010 $
#2460
0!
0"
#2465
1!
1"
b1011100100111100100111100010 *
b1011100100111100100111100110 $
#2470
0!
0"
#2475
1!
1"
b1 (
#2480
0!
0"
#2485
1!
1"
b1011100100111100100111100110 *
b1011100100111100100111101010 $
b11 (
#2490
0!
0"
#2495
1!
1"
b1 (
#2500
0!
0"
#2505
1!
1"
b1011100100111100100111101010 *
b1011100100111100100111101110 $
b11 (
#2510
0!
0"
#2515
1!
1"
b1 (
#2520
0!
0"
#2525
1!
1"
b1011100100111100100111101110 *
b1011100100111100100111110010 $
b11 (
#2530
0!
0"
#2535
1!
1"
b1 (
#2540
0!
0"
#2545
1!
1"
#2550
0!
0"
#2555
1!
1"
b1011100100111100100111110010 *
b1011100100111100100111110110 $
b11 (
#2560
0!
0"
#2565
1!
1"
b1011100100111100100111110110 *
b1011100100111100100111111010 $
#2570
0!
0"
#2575
1!
1"
b1 (
#2580
0!
0"
#2585
1!
1"
b1011100100111100100111111010 *
b1011100100111100100111111110 $
b11 (
#2590
0!
0"
#2595
1!
1"
b1011100100111100100111111110 *
b1011100100111100101000000010 $
b1011100100111100100111000000 $
b0 $
b0 (
b0 %
#2600
0!
0"
#2605
1!
1"
b10011100111011100010010001011 $
b10 (
b11 %
#2610
0!
0"
#2615
1!
1"
b11 (
b0 &
b10011100111011100010010001011 *
b10011100111011100010010001101 $
#2620
0!
0"
#2625
1!
1"
b1 (
#2630
0!
0"
#2635
1!
1"
b11 (
b10011100111011100010010001101 *
b10011100111011100010010001111 $
#2640
0!
0"
#2645
1!
1"
b1 (
#2650
0!
0"
#2655
1!
1"
b11 (
b10011100111011100010010001111 *
b10011100111011100010010010001 $
#2660
0!
0"
#2665
1!
1"
b10011100111011100010010010001 *
b10011100111011100010010010011 $
b0 $
b0 (
b0 %
#2670
0!
0"
#2675
1!
1"
b1001001001110000111110011111010 $
b10 (
b110 %
#2680
0!
0"
#2685
1!
1"
#2690
0!
0"
#2695
1!
1"
b1001001001110000111110011111010 *
b1001001001110000111110011111011 $
b11 (
#2700
0!
0"
#2705
1!
1"
b1 (
#2710
0!
0"
#2715
1!
1"
#2720
0!
0"
#2725
1!
1"
b1001001001110000111110011111011 *
b1001001001110000111110011111100 $
b11 (
#2730
0!
0"
#2735
1!
1"
b1001001001110000111110011111100 *
b1001001001110000111110011111101 $
#2740
0!
0"
#2745
1!
1"
b1001001001110000111110011111101 *
b1001001001110000111110011111110 $
#2750
0!
0"
#2755
1!
1"
b1 (
#2760
0!
0"
#2765
1!
1"
#2770
0!
0"
#2775
1!
1"
b1001001001110000111110011111110 *
b1001001001110000111110011111111 $
b11 (
#2780
0!
0"
#2785
1!
1"
b1001001001110000111110011111111 *
b1001001001110000111110100000000 $
b1001001001110000111110011110000 $
#2790
0!
0"
#2795
1!
1"
b1 (
#2800
0!
0"
#2805
1!
1"
b1001001001110000111110011110000 *
b1001001001110000111110011110001 $
b11 (
#2810
0!
0"
#2815
1!
1"
b1001001001110000111110011110001 *
b1001001001110000111110011110010 $
#2820
0!
0"
#2825
1!
1"
b1 (
#2830
0!
0"
#2835
1!
1"
#2840
0!
0"
#2845
1!
1"
#2850
0!
0"
#2855
1!
1"
b1001001001110000111110011110010 *
b1001001001110000111110011110011 $
b11 (
#2860
0!
0"
#2865
1!
1"
b1 (
#2870
0!
0"
#2875
1!
1"
#2880
0!
0"
#2885
1!
1"
b1001001001110000111110011110011 *
b1001001001110000111110011110100 $
b11 (
#2890
0!
0"
#2895
1!
1"
b1001001001110000111110011110100 *
b1001001001110000111110011110101 $
#2900
0!
0"
#2905
1!
1"
b1001001001110000111110011110101 *
b1001001001110000111110011110110 $
#2910
0!
0"
#2915
1!
1"
b1 (
#2920
0!
0"
#2925
1!
1"
#2930
0!
0"
#2935
1!
1"
#2940
0!
0"
#2945
1!
1"
b1001001001110000111110011110110 *
b1001001001110000111110011110111 $
b11 (
#2950
0!
0"
#2955
1!
1"
b1 (
#2960
0!
0"
#2965
1!
1"
#2970
0!
0"
#2975
1!
1"
b1001001001110000111110011110111 *
b1001001001110000111110011111000 $
b11 (
#2980
0!
0"
#2985
1!
1"
b1001001001110000111110011111000 *
b1001001001110000111110011111001 $
#2990
0!
0"
#2995
1!
1"
b1 (
#3000
0!
0"
#3005
1!
1"
b1001001001110000111110011111001 *
b1001001001110000111110011111010 $
b11 (
b0 $
b0 (
b0 %
#3010
0!
0"
#3015
1!
1"
b10101101111100111010000011110111 $
b10 (
b11 %
#3020
0!
0"
#3025
1!
1"
b11 (
b1 &
b10101101111100111010000011110111 *
b10101101111100111010000011111001 $
#3030
0!
0"
#3035
1!
1"
b10101101111100111010000011111001 *
b10101101111100111010000011111011 $
#3040
0!
0"
#3045
1!
1"
b10101101111100111010000011111011 *
b10101101111100111010000011111101 $
#3050
0!
0"
#3055
1!
1"
b1 (
#3060
0!
0"
#3065
1!
1"
#3070
0!
0"
#3075
1!
1"
b11 (
b10101101111100111010000011111101 *
b10101101111100111010000011111111 $
b0 $
b0 (
b0 %
#3080
0!
0"
#3085
1!
1"
#3090
0!
0"
#3095
1!
1"
b10 (
b1000001110011110011000010000010 $
b0 &
b1000001110011110011000010000010 *
#3100
0!
0"
#3105
1!
1"
b0 $
b0 (
#3110
0!
0"
#3115
1!
1"
b1101011100110110001011001010100 $
b10 (
b111 %
#3120
0!
0"
#3125
1!
1"
b11 (
b1101011100110110001011001010100 *
b1101011100110110001011001010110 $
#3130
0!
0"
#3135
1!
1"
b1101011100110110001011001010110 *
b1101011100110110001011001011000 $
#3140
0!
0"
#3145
1!
1"
b1 (
#3150
0!
0"
#3155
1!
1"
b11 (
b1101011100110110001011001011000 *
b1101011100110110001011001011010 $
#3160
0!
0"
#3165
1!
1"
b1101011100110110001011001011010 *
b1101011100110110001011001011100 $
#3170
0!
0"
#3175
1!
1"
b1 (
#3180
0!
0"
#3185
1!
1"
b11 (
b1101011100110110001011001011100 *
b1101011100110110001011001011110 $
#3190
0!
0"
#3195
1!
1"
b1 (
#3200
0!
0"
#3205
1!
1"
#3210
0!
0"
#3215
1!
1"
#3220
0!
0"
#3225
1!
1"
#3230
0!
0"
#3235
1!
1"
b11 (
b1101011100110110001011001011110 *
b1101011100110110001011001100000 $
#3240
0!
0"
#3245
1!
1"
b1101011100110110001011001100000 *
b1101011100110110001011001100010 $
#3250
0!
0"
#3255
1!
1"
b1101011100110110001011001100010 *
b1101011100110110001011001100100 $
#3260
0!
0"
#3265
1!
1"
b1101011100110110001011001100100 *
b1101011100110110001011001100110 $
#3270
0!
0"
#3275
1!
1"
b1 (
#3280
0!
0"
#3285
1!
1"
#3290
0!
0"
#3295
1!
1"
#3300
0!
0"
#3305
1!
1"
#3310
0!
0"
#3315
1!
1"
b11 (
b1101011100110110001011001100110 *
b1101011100110110001011001101000 $
#3320
0!
0"
#3325
1!
1"
b1 (
#3330
0!
0"
#3335
1!
1"
b11 (
b1101011100110110001011001101000 *
b1101011100110110001011001101010 $
#3340
0!
0"
#3345
1!
1"
b1101011100110110001011001101010 *
b1101011100110110001011001101100 $
#3350
0!
0"
#3355
1!
1"
b1101011100110110001011001101100 *
b1101011100110110001011001101110 $
#3360
0!
0"
#3365
1!
1"
b1 (
#3370
0!
0"
#3375
1!
1"
#3380
0!
0"
#3385
1!
1"
b11 (
b1101011100110110001011001101110 *
b1101011100110110001011001110000 $
#3390
0!
0"
#3395
1!
1"
b1 (
#3400
0!
0"
#3405
1!
1"
b11 (
b1101011100110110001011001110000 *
b1101011100110110001011001110010 $
#3410
0!
0"
#3415
1!
1"
b1101011100110110001011001110010 *
b1101011100110110001011001110100 $
b0 $
b0 (
b0 %
#3420
0!
0"
#3425
1!
1"
b11000100100001110110011110110101 $
b10 (
b110 %
#3430
0!
0"
#3435
1!
1"
#3440
0!
0"
#3445
1!
1"
b11000100100001110110011110110101 *
b1 &
b11000100100001110110011110110111 $
b11 (
#3450
0!
0"
#3455
1!
1"
b1 (
#3460
0!
0"
#3465
1!
1"
#3470
0!
0"
#3475
1!
1"
b11000100100001110110011110110111 *
b11000100100001110110011110111001 $
b11 (
#3480
0!
0"
#3485
1!
1"
b11000100100001110110011110111001 *
b11000100100001110110011110111011 $
#3490
0!
0"
#3495
1!
1"
b11000100100001110110011110111011 *
b11000100100001110110011110111101 $
#3500
0!
0"
#3505
1!
1"
b11000100100001110110011110111101 *
b11000100100001110110011110111111 $
#3510
0!
0"
#3515
1!
1"
b11000100100001110110011110111111 *
b11000100100001110110011111000001 $
b11000100100001110110011110100000 $
#3520
0!
0"
#3525
1!
1"
b1 (
#3530
0!
0"
#3535
1!
1"
b11000100100001110110011110100000 *
b11000100100001110110011110100010 $
b11 (
#3540
0!
0"
#3545
1!
1"
b11000100100001110110011110100010 *
b11000100100001110110011110100100 $
#3550
0!
0"
#3555
1!
1"
b1 (
#3560
0!
0"
#3565
1!
1"
#3570
0!
0"
#3575
1!
1"
b11000100100001110110011110100100 *
b11000100100001110110011110100110 $
b11 (
#3580
0!
0"
#3585
1!
1"
b1 (
#3590
0!
0"
#3595
1!
1"
b11000100100001110110011110100110 *
b11000100100001110110011110101000 $
b11 (
#3600
0!
0"
#3605
1!
1"
b1 (
#3610
0!
0"
#3615
1!
1"
#3620
0!
0"
#3625
1!
1"
b11000100100001110110011110101000 *
b11000100100001110110011110101010 $
b11 (
#3630
0!
0"
#3635
1!
1"
b1 (
#3640
0!
0"
#3645
1!
1"
b11000100100001110110011110101010 *
b11000100100001110110011110101100 $
b11 (
#3650
0!
0"
#3655
1!
1"
b11000100100001110110011110101100 *
b11000100100001110110011110101110 $
#3660
0!
0"
#3665
1!
1"
b1 (
#3670
0!
0"
#3675
1!
1"
#3680
0!
0"
#3685
1!
1"
b11000100100001110110011110101110 *
b11000100100001110110011110110000 $
b11 (
#3690
0!
0"
#3695
1!
1"
b11000100100001110110011110110000 *
b11000100100001110110011110110010 $
#3700
0!
0"
#3705
1!
1"
b1 (
#3710
0!
0"
#3715
1!
1"
#3720
0!
0"
#3725
1!
1"
b11000100100001110110011110110010 *
b11000100100001110110011110110100 $
b11 (
b0 $
b0 (
b0 %
#3730
0!
0"
#3735
1!
1"
b1001011000001000111011010111011 $
b10 (
b11 %
#3740
0!
0"
#3745
1!
1"
b11 (
b1001011000001000111011010111011 *
b1001011000001000111011010111101 $
#3750
0!
0"
#3755
1!
1"
b1 (
#3760
0!
0"
